Lab3/simulation/qsim/MIPS_RISK_PipelinedProcessor.msim.vcd
$comment
	File created using the following command:
		vcd file MIPS_RISK_PipelinedProcessor.msim.vcd -direction
$end
$date
	Wed Apr 03 12:39:45 2024
$end
$version
	ModelSim Version 10.1d
$end
$timescale
	1ps
$end
$scope module component_test_vlg_vec_tst $end
$var reg 6 ! ALU_functxcfb [5:0] $end
$var reg 6 " ALU_opdfsgd [5:0] $end
$var reg 5 # ALU_shamtzf [4:0] $end
$var reg 1 $ ALU_srcghtd $end
$var reg 32 % PC_branch_offsesgdrt [31:0] $end
$var reg 8 & REG_data1sg [7:0] $end
$var reg 8 ' REG_data2xfbx [7:0] $end
$var wire 1 ( ALU_c_out $end
$var wire 1 ) ALU_equal $end
$var wire 1 * ALU_less_than $end
$var wire 1 + ALU_overflow $end
$var wire 1 , ALU_result [7] $end
$var wire 1 - ALU_result [6] $end
$var wire 1 . ALU_result [5] $end
$var wire 1 / ALU_result [4] $end
$var wire 1 0 ALU_result [3] $end
$var wire 1 1 ALU_result [2] $end
$var wire 1 2 ALU_result [1] $end
$var wire 1 3 ALU_result [0] $end
$var wire 1 4 ALU_zero $end
$var wire 1 5 sampler $end
$scope module i1 $end
$var wire 1 6 gnd $end
$var wire 1 7 vcc $end
$var wire 1 8 unknown $end
$var tri1 1 9 devclrn $end
$var tri1 1 : devpor $end
$var tri1 1 ; devoe $end
$var wire 1 < ALU_functxcfb[5]~input_o $end
$var wire 1 = ALU_functxcfb[4]~input_o $end
$var wire 1 > ALU_opdfsgd[5]~input_o $end
$var wire 1 ? ALU_opdfsgd[4]~input_o $end
$var wire 1 @ ALU_opdfsgd[3]~input_o $end
$var wire 1 A ALU_opdfsgd[2]~input_o $end
$var wire 1 B ALU_shamtzf[4]~input_o $end
$var wire 1 C ALU_shamtzf[3]~input_o $end
$var wire 1 D ALU_shamtzf[2]~input_o $end
$var wire 1 E ALU_shamtzf[1]~input_o $end
$var wire 1 F ALU_shamtzf[0]~input_o $end
$var wire 1 G PC_branch_offsesgdrt[31]~input_o $end
$var wire 1 H PC_branch_offsesgdrt[30]~input_o $end
$var wire 1 I PC_branch_offsesgdrt[29]~input_o $end
$var wire 1 J PC_branch_offsesgdrt[28]~input_o $end
$var wire 1 K PC_branch_offsesgdrt[27]~input_o $end
$var wire 1 L PC_branch_offsesgdrt[26]~input_o $end
$var wire 1 M PC_branch_offsesgdrt[25]~input_o $end
$var wire 1 N PC_branch_offsesgdrt[24]~input_o $end
$var wire 1 O PC_branch_offsesgdrt[23]~input_o $end
$var wire 1 P PC_branch_offsesgdrt[22]~input_o $end
$var wire 1 Q PC_branch_offsesgdrt[21]~input_o $end
$var wire 1 R PC_branch_offsesgdrt[20]~input_o $end
$var wire 1 S PC_branch_offsesgdrt[19]~input_o $end
$var wire 1 T PC_branch_offsesgdrt[18]~input_o $end
$var wire 1 U PC_branch_offsesgdrt[17]~input_o $end
$var wire 1 V PC_branch_offsesgdrt[16]~input_o $end
$var wire 1 W PC_branch_offsesgdrt[15]~input_o $end
$var wire 1 X PC_branch_offsesgdrt[14]~input_o $end
$var wire 1 Y PC_branch_offsesgdrt[13]~input_o $end
$var wire 1 Z PC_branch_offsesgdrt[12]~input_o $end
$var wire 1 [ PC_branch_offsesgdrt[11]~input_o $end
$var wire 1 \ PC_branch_offsesgdrt[10]~input_o $end
$var wire 1 ] PC_branch_offsesgdrt[9]~input_o $end
$var wire 1 ^ PC_branch_offsesgdrt[8]~input_o $end
$var wire 1 _ ALU_zero~output_o $end
$var wire 1 ` ALU_c_out~output_o $end
$var wire 1 a ALU_overflow~output_o $end
$var wire 1 b ALU_less_than~output_o $end
$var wire 1 c ALU_equal~output_o $end
$var wire 1 d ALU_result[7]~output_o $end
$var wire 1 e ALU_result[6]~output_o $end
$var wire 1 f ALU_result[5]~output_o $end
$var wire 1 g ALU_result[4]~output_o $end
$var wire 1 h ALU_result[3]~output_o $end
$var wire 1 i ALU_result[2]~output_o $end
$var wire 1 j ALU_result[1]~output_o $end
$var wire 1 k ALU_result[0]~output_o $end
$var wire 1 l REG_data1sg[7]~input_o $end
$var wire 1 m ALU_functxcfb[2]~input_o $end
$var wire 1 n ALU_opdfsgd[1]~input_o $end
$var wire 1 o ALU_functxcfb[3]~input_o $end
$var wire 1 p ALU_functxcfb[0]~input_o $end
$var wire 1 q instxds|ALU_Ctrl_asa|ALUControlSignal[0]~0_combout $end
$var wire 1 r ALU_srcghtd~input_o $end
$var wire 1 s REG_data2xfbx[7]~input_o $end
$var wire 1 t PC_branch_offsesgdrt[7]~input_o $end
$var wire 1 u instxds|ALU_mux|outp[7]~0_combout $end
$var wire 1 v instxds|ALU|mux2|tsb0|loop0:7:tsb|outp~0_combout $end
$var wire 1 w PC_branch_offsesgdrt[5]~input_o $end
$var wire 1 x REG_data2xfbx[5]~input_o $end
$var wire 1 y instxds|ALU_mux|outp[5]~2_combout $end
$var wire 1 z REG_data1sg[5]~input_o $end
$var wire 1 { ALU_functxcfb[1]~input_o $end
$var wire 1 | ALU_opdfsgd[0]~input_o $end
$var wire 1 } instxds|ALU_Ctrl_asa|ALUControlSignal[2]~1_combout $end
$var wire 1 ~ instxds|ALU|AU|decode|loop0:1:cla4_adder_inst|loop0:1:half_adder_inst|c_out~combout $end
$var wire 1 !! REG_data1sg[6]~input_o $end
$var wire 1 "! PC_branch_offsesgdrt[6]~input_o $end
$var wire 1 #! REG_data2xfbx[6]~input_o $end
$var wire 1 $! instxds|ALU_mux|outp[6]~1_combout $end
$var wire 1 %! instxds|ALU|AU|decode|loop0:1:cla4_adder_inst|c~0_combout $end
$var wire 1 &! instxds|ALU|AU|decode|loop0:1:cla4_adder_inst|loop0:1:half_adder_inst|sum~combout $end
$var wire 1 '! REG_data1sg[4]~input_o $end
$var wire 1 (! REG_data2xfbx[4]~input_o $end
$var wire 1 )! PC_branch_offsesgdrt[4]~input_o $end
$var wire 1 *! instxds|ALU_mux|outp[4]~3_combout $end
$var wire 1 +! instxds|ALU|AU|decode|loop0:1:cla4_adder_inst|loop0:0:half_adder_inst|sum~combout $end
$var wire 1 ,! REG_data1sg[3]~input_o $end
$var wire 1 -! PC_branch_offsesgdrt[3]~input_o $end
$var wire 1 .! REG_data2xfbx[3]~input_o $end
$var wire 1 /! instxds|ALU_mux|outp[3]~4_combout $end
$var wire 1 0! instxds|ALU|AU|decode|loop0:0:cla4_adder_inst|loop0:3:half_adder_inst|sum~combout $end
$var wire 1 1! PC_branch_offsesgdrt[2]~input_o $end
$var wire 1 2! REG_data2xfbx[2]~input_o $end
$var wire 1 3! instxds|ALU_mux|outp[2]~5_combout $end
$var wire 1 4! REG_data1sg[2]~input_o $end
$var wire 1 5! instxds|ALU|AU|decode|loop0:0:cla4_adder_inst|loop0:2:half_adder_inst|c_out~combout $end
$var wire 1 6! instxds|ALU|AU|decode|loop0:0:cla4_adder_inst|c_out~0_combout $end
$var wire 1 7! instxds|ALU|AU|decode|loop0:0:cla4_adder_inst|loop0:2:half_adder_inst|sum~combout $end
$var wire 1 8! REG_data1sg[1]~input_o $end
$var wire 1 9! REG_data2xfbx[1]~input_o $end
$var wire 1 :! PC_branch_offsesgdrt[1]~input_o $end
$var wire 1 ;! instxds|ALU_mux|outp[1]~6_combout $end
$var wire 1 <! instxds|ALU|AU|decode|loop0:0:cla4_adder_inst|loop0:1:half_adder_inst|sum~combout $end
$var wire 1 =! PC_branch_offsesgdrt[0]~input_o $end
$var wire 1 >! REG_data2xfbx[0]~input_o $end
$var wire 1 ?! instxds|ALU_mux|outp[0]~7_combout $end
$var wire 1 @! REG_data1sg[0]~input_o $end
$var wire 1 A! instxds|ALU|AU|decode|loop0:0:cla4_adder_inst|loop0:0:half_adder_inst|c_out~combout $end
$var wire 1 B! instxds|ALU|AU|decode|loop0:0:cla4_adder_inst|c~0_combout $end
$var wire 1 C! instxds|ALU|AU|decode|loop0:0:cla4_adder_inst|loop0:1:half_adder_inst|c_out~combout $end
$var wire 1 D! instxds|ALU|AU|decode|loop0:0:cla4_adder_inst|c_out~1_combout $end
$var wire 1 E! instxds|ALU|AU|decode|loop0:0:cla4_adder_inst|c_out~2_combout $end
$var wire 1 F! instxds|ALU|AU|decode|loop0:1:cla4_adder_inst|c~2_combout $end
$var wire 1 G! instxds|ALU|AU|decode|loop0:1:cla4_adder_inst|loop0:2:half_adder_inst|sum~combout $end
$var wire 1 H! instxds|ALU|AU|decode|loop0:1:cla4_adder_inst|loop0:0:half_adder_inst|c_out~combout $end
$var wire 1 I! instxds|ALU|AU|decode|loop0:1:cla4_adder_inst|c~1_combout $end
$var wire 1 J! instxds|ALU|AU|decode|loop0:1:cla4_adder_inst|c_ovfl~combout $end
$var wire 1 K! instxds|ALU|AU|decode|loop0:1:cla4_adder_inst|loop0:3:half_adder_inst|sum~combout $end
$var wire 1 L! instxds|ALU|mux2|tsb0|loop0:7:tsb|outp~1_combout $end
$var wire 1 M! instxds|ALU|AU|decode|loop0:1:cla4_adder_inst|c[1]~4_combout $end
$var wire 1 N! instxds|ALU|mux2|tsb0|loop0:5:tsb|outp~0_combout $end
$var wire 1 O! instxds|ALU|mux2|tsb0|loop0:5:tsb|outp~1_combout $end
$var wire 1 P! instxds|ALU|AU|decode|loop0:0:cla4_adder_inst|c_ovfl~0_combout $end
$var wire 1 Q! instxds|ALU|mux2|tsb0|loop0:1:tsb|outp~0_combout $end
$var wire 1 R! instxds|ALU|mux2|tsb0|loop0:1:tsb|outp~1_combout $end
$var wire 1 S! instxds|ALU|mux2|tsb0|loop0:2:tsb|outp~0_combout $end
$var wire 1 T! instxds|ALU|AU|decode|loop0:0:cla4_adder_inst|c~2_combout $end
$var wire 1 U! instxds|ALU|mux2|tsb0|loop0:2:tsb|outp~1_combout $end
$var wire 1 V! instxds|ALU|mux2|tsb0|loop0:2:tsb|outp~2_combout $end
$var wire 1 W! instxds|ALU|mux2|tsb0|loop0:0:tsb|outp~0_combout $end
$var wire 1 X! instxds|ALU|WideOr0~1_combout $end
$var wire 1 Y! instxds|ALU|mux2|tsb0|loop0:6:tsb|outp~0_combout $end
$var wire 1 Z! instxds|ALU|AU|decode|loop0:1:cla4_adder_inst|c~3_combout $end
$var wire 1 [! instxds|ALU|mux2|tsb0|loop0:6:tsb|outp~1_combout $end
$var wire 1 \! instxds|ALU|mux2|tsb0|loop0:6:tsb|outp~2_combout $end
$var wire 1 ]! instxds|ALU|AU|decode|loop0:0:cla4_adder_inst|c~1_combout $end
$var wire 1 ^! instxds|ALU|AU|decode|loop0:0:cla4_adder_inst|c_ovfl~1_combout $end
$var wire 1 _! instxds|ALU|mux2|tsb0|loop0:3:tsb|outp~0_combout $end
$var wire 1 `! instxds|ALU|mux2|tsb0|loop0:3:tsb|outp~1_combout $end
$var wire 1 a! instxds|ALU|mux2|tsb0|loop0:4:tsb|outp~0_combout $end
$var wire 1 b! instxds|ALU|mux2|tsb0|loop0:4:tsb|outp~1_combout $end
$var wire 1 c! instxds|ALU|WideOr0~0_combout $end
$var wire 1 d! instxds|ALU|WideOr0~combout $end
$var wire 1 e! instxds|ALU|AU|decode|loop0:1:cla4_adder_inst|loop0:2:half_adder_inst|c_out~combout $end
$var wire 1 f! instxds|ALU|c_out~0_combout $end
$var wire 1 g! instxds|ALU|c_out~1_combout $end
$var wire 1 h! instxds|ALU|c_out~2_combout $end
$var wire 1 i! instxds|ALU|overflow~combout $end
$var wire 1 j! instxds|ALU|less_than~combout $end
$var wire 1 k! instxds|ALU|Equal0~1_combout $end
$var wire 1 l! instxds|ALU|Equal0~3_combout $end
$var wire 1 m! instxds|ALU|Equal0~2_combout $end
$var wire 1 n! instxds|ALU|Equal0~0_combout $end
$var wire 1 o! instxds|ALU|Equal0~4_combout $end
$var wire 1 p! instxds|ALU_Ctrl_asa|ALUControlSignal [2] $end
$var wire 1 q! instxds|ALU_Ctrl_asa|ALUControlSignal [1] $end
$var wire 1 r! instxds|ALU_Ctrl_asa|ALUControlSignal [0] $end
$upscope $end
$upscope $end
$enddefinitions $end
#0
$dumpvars
b0 !
b10 "
bx #
0$
b11000 %
b10100100 &
b1100101 '
0(
0)
0*
0+
13
02
01
10
0/
0.
0-
0,
04
x5
06
17
x8
19
1:
1;
0<
0=
0>
0?
0@
0A
xB
xC
xD
xE
xF
0G
0H
0I
0J
0K
0L
0M
0N
0O
0P
0Q
0R
0S
0T
0U
0V
0W
0X
0Y
0Z
0[
0\
0]
0^
0_
0`
0a
0b
0c
0d
0e
0f
0g
1h
0i
0j
1k
1l
0m
1n
0o
0p
0q
0r
0s
0t
0u
0v
0w
1x
1y
1z
0{
0|
0}
1~
0!!
0"!
1#!
1$!
1%!
0&!
0'!
0(!
1)!
0*!
0+!
0,!
1-!
0.!
0/!
00!
01!
12!
13!
14!
15!
06!
07!
08!
09!
0:!
0;!
0<!
0=!
1>!
1?!
0@!
0A!
0B!
0C!
0D!
0E!
0F!
1G!
0H!
0I!
1J!
1K!
0L!
0M!
0N!
0O!
0P!
0Q!
0R!
0S!
0T!
1U!
0V!
1W!
1X!
0Y!
1Z!
0[!
0\!
1]!
1^!
0_!
1`!
0a!
0b!
1c!
1d!
0e!
0f!
1g!
0h!
0i!
0j!
1k!
0l!
0m!
0n!
0o!
zr!
1q!
zp!
$end
#40000
b10 !
1{
05
1}
0]!
0Z!
0K!
0G!
1<!
17!
16!
05!
10!
1+!
1&!
0%!
0~
1i!
1h!
0^!
0g!
0J!
1E!
06!
1a
1`
1+
1(
1j!
1L!
1R!
1V!
0`!
1b!
1O!
1f!
1M!
1F!
0E!
1b
1d
1j
1i
0h
1g
1f
1*
1,
12
11
00
1/
1.
1`!
0j!
0L!
0b!
1[!
0f!
0M!
0F!
1h
0b
0d
0g
10
0*
0,
0/
0O!
0i!
1b!
0[!
0f
0a
1g
0.
0+
1/
1\!
1O!
1e
1f
1-
1.
0\!
0e
0-
#80000
b110 !
b100 !
0{
1m
15
0}
0q!
1]!
1Z!
1K!
1G!
0<!
07!
15!
00!
0+!
0&!
1~
1S!
1N!
0h!
0b!
0`!
0W!
0V!
0R!
0O!
1^!
1g!
1%!
0c!
0X!
0`
0g
0h
0k
0i
0j
0f
0(
0/
00
03
01
02
0.
1j!
1V!
1O!
1J!
0d!
1X!
1b
1i
1f
1*
11
1.
1d!
1_
14
0j!
0_
0b
04
0*
#120000
b101 !
1p
05
1q
1Y!
1v
1W!
1k
13
1\!
1L!
1e
1d
1-
1,
#160000
b1101 !
b1001 !
b1011 !
b1010 !
0p
1{
0m
1o
15
1}
1q!
0]!
0Z!
0K!
0G!
1<!
17!
16!
05!
10!
1+!
1&!
0%!
0~
0Y!
0S!
0N!
0v
1i!
1h!
1`!
0^!
0g!
0J!
1E!
06!
1c!
1a
1`
1h
1+
1(
10
1R!
0`!
1b!
0\!
1f!
1M!
1F!
0E!
1j
0h
1g
0e
12
00
1/
0-
1`!
0L!
0b!
1[!
0f!
0M!
0F!
1h
0d
0g
10
0,
0/
0O!
0i!
1b!
0[!
0f
0a
1g
0.
0+
1/
1\!
1O!
1e
1f
1-
1.
0\!
0e
0-
#200000
1$
b10 !
b0 !
1r
0{
0o
05
0?!
03!
1/!
1*!
0$!
0y
0}
0q
1n!
0k!
1K!
0<!
0W!
0h!
0k
0`
03
0(
1j!
1L!
0R!
1b
1d
0j
1*
1,
02
#240000
b10 !
1{
15
1}
1]!
1Z!
1P!
0K!
1G!
1B!
1<!
07!
15!
00!
0+!
0&!
1~
1h!
1^!
1g!
0U!
1D!
1%!
1`
1(
0j!
0L!
0V!
0`!
0b!
0O!
1J!
0X!
0c!
0b
0d
0i
0h
0g
0f
0*
0,
01
00
0/
0.
1`!
1V!
0d!
1c!
1X!
1h
1i
10
11
1j!
1i!
1L!
1d!
1_
1b
1a
1d
14
1*
1+
1,
0_
04
#280000
b110 !
b100 !
0{
1m
05
0}
0q!
0]!
0Z!
0P!
1K!
0G!
0B!
0<!
17!
16!
05!
10!
1+!
1&!
0%!
0~
0i!
0h!
0`!
0V!
0L!
0^!
0g!
0J!
1U!
0D!
1E!
06!
0c!
0X!
0a
0`
0h
0i
0d
0+
0(
00
01
0,
0j!
0E!
1f!
1M!
1F!
0d!
0b
0*
1j!
0f!
0M!
0F!
1_
1b
14
1*
#320000
b101 !
1p
15
1q
1a!
1_!
1S!
1N!
1v
0j!
0b
0*
1b!
1`!
1V!
1O!
1L!
1c!
1X!
1d!
1g
1h
1i
1f
1d
1/
10
11
1.
1,
0_
04
#360000
b1101 !
b1001 !
b1011 !
b1010 !
0p
1{
0m
1o
05
1}
1q!
1]!
1Z!
1P!
0K!
1G!
1B!
1<!
07!
15!
00!
0+!
0&!
1~
0a!
0_!
0S!
0N!
0v
1h!
1^!
1g!
0U!
1D!
1%!
1`
1(
0L!
0V!
0`!
0b!
0O!
1J!
0X!
0c!
0d
0i
0h
0g
0f
0,
01
00
0/
0.
1`!
1V!
0d!
1c!
1X!
1h
1i
10
11
1i!
1L!
1d!
1_
1a
1d
14
1+
1,
0_
04
#400000
b0 "
0$
b10 !
b0 !
0r
0{
0o
0n
15
1?!
13!
0/!
0*!
1$!
1y
0}
0q
0n!
0P!
0B!
1k!
1K!
0<!
1W!
0i!
0h!
1j!
1U!
0D!
1k
0a
0`
1b
13
0+
0(
1*
0j!
0L!
0b
0d
0*
0,
0V!
0i
01
#440000
b1 "
1|
05
1}
0]!
0Z!
0K!
0G!
1<!
17!
16!
05!
10!
1+!
1&!
0%!
0~
1i!
1h!
0^!
0g!
0J!
1E!
06!
1a
1`
1+
1(
1j!
1L!
1R!
1V!
0`!
1b!
1O!
1f!
1M!
1F!
0E!
1b
1d
1j
1i
0h
1g
1f
1*
1,
12
11
00
1/
1.
1`!
0j!
0L!
0b!
1[!
0f!
0M!
0F!
1h
0b
0d
0g
10
0*
0,
0/
0O!
0i!
1b!
0[!
0f
0a
1g
0.
0+
1/
1\!
1O!
1e
1f
1-
1.
0\!
0e
0-
#480000
1$
b0 "
1r
0|
15
0?!
03!
1/!
1*!
0$!
0y
0}
1n!
0k!
1K!
0<!
0W!
0h!
0k
0`
03
0(
1j!
1L!
0R!
1b
1d
0j
1*
1,
02
#520000
b1 "
1|
05
1}
1]!
1Z!
1P!
0K!
1G!
1B!
1<!
07!
15!
00!
0+!
0&!
1~
1h!
1^!
1g!
0U!
1D!
1%!
1`
1(
0j!
0L!
0V!
0`!
0b!
0O!
1J!
0X!
0c!
0b
0d
0i
0h
0g
0f
0*
0,
01
00
0/
0.
1`!
1V!
0d!
1c!
1X!
1h
1i
10
11
1j!
1i!
1L!
1d!
1_
1b
1a
1d
14
1*
1+
1,
0_
04
#560000
b11100100 &
b11110100 &
b11111100 &
b11111101 &
b100101 '
b101 '
b1 '
b11 "
0$
b10 "
0|
1n
02!
0x
0#!
1@!
1,!
1'!
1!!
0r
15
0}
0n!
0B!
1A!
16!
10!
1+!
1e!
0G!
1?!
0/!
0*!
1W!
0e!
0]!
0Z!
1K!
1G!
0<!
17!
05!
1&!
0~
1U!
1E!
1[!
1n!
1k
13
0i!
0h!
0`!
1b!
0W!
0g!
0^!
0D!
06!
1f!
1F!
0%!
1M!
0a
0`
0h
1g
0k
0+
0(
00
1/
03
0j!
0L!
1R!
1O!
0b!
1\!
0E!
1g!
0[!
0c!
0b
0d
1j
1f
0g
1e
0*
0,
12
1.
0/
1-
1`!
0O!
0f!
0M!
0F!
1c!
1h
0f
10
0.
1b!
0\!
0g!
1[!
0J!
1g
0e
1/
0-
1O!
1f
1.
1\!
1j!
1L!
1e
1b
1d
1-
1*
1,
#570000
b11111111 &
b11111110 &
0@!
18!
05
0n!
0P!
0A!
1T!
1<!
1W!
0T!
0U!
1k
13
1U!
0V!
0i
01
1V!
1i
11
#580000
b11111111 &
1@!
15
1P!
1A!
0W!
1^!
1T!
1D!
0k
03
0R!
0U!
1E!
0j
02
0`!
1f!
1M!
1F!
0h
00
0V!
0b!
1g!
0[!
1J!
0c!
0i
0g
01
0/
0O!
0X!
0f
0.
0\!
0j!
0L!
0d!
0e
0b
0d
0-
0*
0,
1_
14
#590000
b1111111 &
b1011111 &
b1011011 &
b11011 &
b1011 &
b11 &
b1 &
b0 &
0@!
08!
04!
0,!
0'!
0z
0!!
0l
05
0P!
0A!
0T!
0<!
1k!
07!
1l!
00!
0M!
0+!
1m!
0&!
0G!
0K!
1W!
0^!
0D!
1U!
0E!
0f!
0F!
0g!
1[!
0J!
1X!
1k
13
1V!
1`!
1b!
1j!
1L!
0[!
1d!
1c!
1i
1h
1g
1b
1d
11
10
1/
1*
1,
0`!
0V!
0b!
1\!
0j!
0L!
0c!
0_
0h
0i
0g
1e
0b
0d
04
00
01
0/
1-
0*
0,
0\!
0e
0-
#600000
b1 &
1@!
15
1n!
1P!
1A!
0W!
0X!
0k
03
1o!
1R!
0d!
1X!
1c
1j
1)
12
1d!
1_
14
0_
04
#610000
b11 &
b10 &
0@!
18!
05
0n!
0P!
0A!
1T!
1<!
1W!
0T!
0U!
1k
13
0o!
1U!
0c
0)
1V!
1i
11
0V!
0i
01
#620000
b11 &
1@!
15
1P!
1A!
0W!
1T!
1D!
0k
03
0R!
0U!
0X!
0j
02
0d!
1V!
1X!
1_
1i
14
11
1d!
0_
04
#630000
b111 &
b101 &
b100 &
0@!
08!
14!
05
0P!
0A!
0T!
0<!
0k!
17!
1W!
0D!
1U!
1k
13
0V!
0i
01
1V!
1i
11
#640000
b101 &
1@!
15
1n!
1P!
1A!
0W!
0k
03
1R!
1j
12
#650000
b111 &
b110 &
0@!
18!
05
0n!
0P!
0A!
1T!
1<!
1W!
0T!
0U!
1k
13
1U!
0V!
0i
01
1V!
1i
11
#660000
b111 &
1@!
15
1P!
1A!
0W!
1^!
1T!
1D!
0k
03
0R!
0U!
0j
02
1`!
1c!
1h
10
0V!
0X!
0i
01
#670000
b1111 &
b1011 &
b1001 &
b1000 &
0@!
08!
04!
1,!
05
0P!
0A!
0T!
0<!
1k!
07!
0l!
10!
1W!
0^!
0D!
1U!
1X!
1k
13
1V!
0`!
0c!
1i
0h
11
00
1`!
0V!
1c!
1h
0i
10
01
#680000
b1001 &
1@!
15
1n!
1P!
1A!
0W!
0X!
0k
03
1R!
1X!
1j
12
#690000
b1011 &
b1010 &
0@!
18!
05
0n!
0P!
0A!
1T!
1<!
1W!
0T!
0U!
1k
13
1U!
1V!
1i
11
0V!
0i
01
#700000
b1011 &
1@!
15
1P!
1A!
0W!
1T!
1D!
0k
03
0R!
0U!
0X!
0j
02
1V!
1X!
1i
11
#710000
b1111 &
b1101 &
b1100 &
0@!
08!
14!
05
0P!
0A!
0T!
0<!
0k!
17!
1W!
0D!
1U!
1E!
1k
13
0V!
0E!
0i
01
1V!
1b!
1i
1g
11
1/
0b!
0g
0/
#720000
b1101 &
1@!
15
1n!
1P!
1A!
0W!
0k
03
1R!
1j
12
#730000
b1111 &
b1110 &
0@!
18!
05
0n!
0P!
0A!
1T!
1<!
1W!
0T!
0U!
1k
13
1U!
0V!
0i
01
1V!
1i
11
#740000
b1111 &
1@!
15
1P!
1A!
0W!
1^!
1T!
1D!
0k
03
0R!
0U!
1E!
0j
02
0`!
0c!
0h
00
0V!
1b!
0X!
1c!
0i
1g
01
1/
#750000
b11111 &
b10111 &
b10011 &
b10001 &
b10000 &
0@!
08!
04!
0,!
1'!
05
0P!
0A!
0T!
0<!
07!
1l!
00!
1M!
1+!
1W!
0^!
0D!
1U!
0E!
1X!
1k
13
1V!
1`!
1O!
0b!
0M!
1i
1h
1f
0g
11
10
1.
0/
0`!
0V!
1b!
0h
0i
1g
00
01
1/
0O!
0f
0.
#760000
b10001 &
1@!
15
1n!
1P!
1A!
0W!
0X!
0k
03
1R!
1X!
1j
12
#770000
b10011 &
b10010 &
0@!
18!
05
0n!
0P!
0A!
1T!
1<!
1W!
0T!
0U!
1k
13
1U!
1V!
1i
11
0V!
0i
01
#780000
b10011 &
1@!
15
1P!
1A!
0W!
1T!
1D!
0k
03
0R!
0U!
0X!
0j
02
1V!
1X!
1i
11
#790000
b10111 &
b10101 &
b10100 &
0@!
08!
14!
05
0P!
0A!
0T!
0<!
17!
1W!
0D!
1U!
1k
13
0V!
0i
01
1V!
1i
11
#800000
b10101 &
1@!
15
1n!
1P!
1A!
0W!
0k
03
1R!
1j
12
#810000
b10111 &
b10110 &
0@!
18!
05
0n!
0P!
0A!
1T!
1<!
1W!
0T!
0U!
1k
13
1U!
0V!
0i
01
1V!
1i
11
#820000
b10111 &
1@!
15
1P!
1A!
0W!
1^!
1T!
1D!
0k
03
0R!
0U!
0j
02
1`!
1h
10
0V!
0X!
0i
01
#830000
b11111 &
b11011 &
b11001 &
b11000 &
0@!
08!
04!
1,!
05
0P!
0A!
0T!
0<!
07!
0l!
10!
1W!
0^!
0D!
1U!
1X!
1k
13
1V!
0`!
1i
0h
11
00
1`!
0V!
1h
0i
10
01
#840000
b11001 &
1@!
15
1n!
1P!
1A!
0W!
0X!
0k
03
1R!
1X!
1j
12
#850000
b11011 &
b11010 &
0@!
18!
05
0n!
0P!
0A!
1T!
1<!
1W!
0T!
0U!
1k
13
1U!
1V!
1i
11
0V!
0i
01
#860000
b11011 &
1@!
15
1P!
1A!
0W!
1T!
1D!
0k
03
0R!
0U!
0X!
0j
02
1V!
1X!
1i
11
#870000
b11111 &
b11101 &
b11100 &
0@!
08!
14!
05
0P!
0A!
0T!
0<!
17!
1W!
0D!
1U!
1E!
1k
13
0V!
0E!
1M!
0i
01
1V!
0b!
0M!
1i
0g
11
0/
1b!
1O!
1g
1f
1/
1.
0O!
0f
0.
#880000
b11101 &
1@!
15
1n!
1P!
1A!
0W!
0k
03
1R!
1j
12
#890000
b11111 &
b11110 &
0@!
18!
05
0n!
0P!
0A!
1T!
1<!
1W!
0T!
0U!
1k
13
1U!
0V!
0i
01
1V!
1i
11
#900000
b11111 &
1@!
15
1P!
1A!
0W!
1^!
1T!
1D!
0k
03
0R!
0U!
1E!
0j
02
0`!
1M!
0h
00
0V!
0b!
0X!
0c!
0i
0g
01
0/
1O!
0d!
1X!
1f
1.
1d!
1_
14
0_
04
#910000
b111111 &
b101111 &
b100111 &
b100011 &
b100001 &
b100000 &
0@!
08!
04!
0,!
0'!
1z
05
0P!
0A!
0T!
0<!
1k!
07!
1l!
00!
0M!
0+!
0m!
1&!
1W!
0^!
0D!
1U!
0E!
1k
13
1V!
1`!
1b!
1c!
1i
1h
1g
11
10
1/
0`!
0V!
0b!
0c!
0h
0i
0g
00
01
0/
#920000
b100001 &
1@!
15
1n!
1P!
1A!
0W!
0k
03
1R!
1j
12
#930000
b100011 &
b100010 &
0@!
18!
05
0n!
0P!
0A!
1T!
1<!
1W!
0T!
0U!
1k
13
1U!
1V!
1i
11
0V!
0i
01
#940000
b100011 &
1@!
15
1P!
1A!
0W!
1T!
1D!
0k
03
0R!
0U!
0j
02
1V!
1i
11
#950000
b100111 &
b100101 &
b100100 &
0@!
08!
14!
05
0P!
0A!
0T!
0<!
0k!
17!
1W!
0D!
1U!
1k
13
0V!
0i
01
1V!
1i
11
#960000
b100101 &
1@!
15
1n!
1P!
1A!
0W!
0k
03
1R!
1j
12
#970000
b100111 &
b100110 &
0@!
18!
05
0n!
0P!
0A!
1T!
1<!
1W!
0T!
0U!
1k
13
1U!
0V!
0i
01
1V!
1i
11
#980000
b100111 &
1@!
15
1P!
1A!
0W!
1^!
1T!
1D!
0k
03
0R!
0U!
0j
02
1`!
1c!
1h
10
0V!
0i
01
#990000
bx00000 !
bx0000 !
bx0x00 !
bx0x0x !
bx0x !
bx !
b10100111 &
b10100101 &
b10100100 &
0@!
08!
1l
xp
x{
xm
xo
x=
x<
05
0P!
0A!
0T!
0<!
0l!
1K!
xq
x}
xq!
1W!
0^!
0D!
1U!
xS!
xN!
xv
x]!
xZ!
xK!
xG!
x<!
x7!
x5!
x0!
x+!
x&!
x~
1k
13
xj!
xL!
xW!
xh!
x`!
xO!
x^!
x[!
xg!
x6!
x%!
xX!
xc!
xb
xd
xk
x`
xh
xf
x*
x,
x3
x(
x0
x.
xV!
xR!
xb!
xE!
xJ!
xd!
xi
xj
xg
x1
x2
x/
x\!
xf!
xM!
xF!
x_
xe
x4
x-
xi!
xa
x+
